LAB2_board_demo/simulation/qsim/lab2.msim.vcd
$comment
	File created using the following command:
		vcd file lab2.msim.vcd -direction
$end
$date
	Wed Mar 12 23:49:16 2025
$end
$version
	ModelSim Version 10.1d
$end
$timescale
	1ps
$end
$scope module debouncer_2_vlg_vec_tst $end
$var reg 1 ! i_clock $end
$var reg 1 " i_raw $end
$var reg 1 # i_resetBar $end
$var wire 1 $ o_clean $end
$var wire 1 % sampler $end
$scope module i1 $end
$var wire 1 & gnd $end
$var wire 1 ' vcc $end
$var wire 1 ( unknown $end
$var tri1 1 ) devclrn $end
$var tri1 1 * devpor $end
$var tri1 1 + devoe $end
$var wire 1 , i_raw~input_o $end
$var wire 1 - i_clock~input_o $end
$var wire 1 . i_clock~inputclkctrl_outclk $end
$var wire 1 / o_clean~output_o $end
$var wire 1 0 int_d2Input~combout $end
$var wire 1 1 i_resetBar~input_o $end
$var wire 1 2 i_resetBar~inputclkctrl_outclk $end
$var wire 1 3 second|int_q~q $end
$var wire 1 4 int_d1Input~0_combout $end
$var wire 1 5 first|int_q~q $end
$var wire 1 6 int_debouncedRaw~0_combout $end
$upscope $end
$upscope $end
$enddefinitions $end
#0
$dumpvars
0!
0"
1#
0$
x%
0&
1'
x(
1)
1*
1+
0,
0-
0.
0/
00
11
12
03
04
05
16
$end
#20000
1!
1-
1.
0%
#40000
0!
0-
0.
1%
#60000
1"
1!
1,
1-
1.
0%
10
#80000
0!
0-
0.
1%
#100000
0"
1!
0,
1-
1.
0%
00
13
#120000
0!
0-
0.
1%
#140000
1"
1!
1,
1-
1.
0%
14
03
04
10
#160000
0!
0-
0.
1%
#180000
1!
1-
1.
0%
13
14
00
#200000
0!
0-
0.
1%
#220000
0"
1!
0,
1-
1.
0%
04
15
03
06
1/
1$
#240000
0!
0-
0.
1%
#260000
1"
1!
1,
1-
1.
0%
14
05
16
04
10
0/
0$
#280000
0!
0-
0.
1%
#300000
1!
1-
1.
0%
13
14
00
#320000
0!
0-
0.
1%
#340000
1!
1-
1.
0%
15
03
06
1/
1$
#360000
0!
0-
0.
1%
#380000
1!
1-
1.
0%
#400000
0!
0-
0.
1%
#420000
0"
1!
0,
1-
1.
0%
04
#440000
0!
0-
0.
1%
#460000
1!
1-
1.
0%
05
16
0/
0$
#480000
0!
0-
0.
1%
#500000
1!
1-
1.
0%
#520000
0!
0-
0.
1%
#540000
1!
1-
1.
0%
#560000
0!
0-
0.
1%
#580000
1!
1-
1.
0%
#600000
0!
0-
0.
1%
#620000
1!
1-
1.
0%
#640000
0!
0-
0.
1%
#660000
1!
1-
1.
0%
#680000
0!
0-
0.
1%
#700000
1!
1-
1.
0%
#720000
0!
0-
0.
1%
#740000
1!
1-
1.
0%
#760000
0!
0-
0.
1%
#780000
1!
1-
1.
0%
#800000
0!
0-
0.
1%
#820000
1!
1-
1.
0%
#840000
0!
0-
0.
1%
#860000
1!
1-
1.
0%
#880000
0!
0-
0.
1%
#900000
1!
1-
1.
0%
#920000
0!
0-
0.
1%
#940000
1!
1-
1.
0%
#960000
0!
0-
0.
1%
#980000
1!
1-
1.
0%
